{
  "no_network_message": "Please check your network connection",
  "no_network_title": "No Network",
  "group_type_impure_sequence": "Impure Sequence",
  "group_type_pure_sequence": "Pure Sequence",
  "group_type_set": "Set",
  "group_type_invalid": "Invalid",
  "player_dropped": "Dropped",
  "player_dropped_on_wrong_declare": "Wrong Declare",
  "player_lost": "Lost",
  "waiting_for_others": "Waiting for more players to join to start the game.",
  "next_game_starts": "Get ready - Next game starts in {0} seconds",
  "game_variant_points": "Points Rummy",
  "game_variant_pool": "Pool Rummy",
  "game_variant_deal": "Deal Rummy",
  "disconnection_message": "Oops! You are disconnected.",
  "msg_waitforturn": "Please wait for you turn",
  "msg_gameinstruction": "Select a card and discard it to the Open Deck or Finish Slot",
  "msg_tossinprogress": "Toss is in progress",
  "msg_submitsuccessfull": "Submit Successfull",
  "declaration_in_progress_message": "Declaration is in progress. Please wait for other players to declare {0} Second(s)",
  "msg_leavetable_confirmation": "Are you sure you want to leave this table?",
  "game_type_cash": "Cash Game",
  "game_type_practice": "Practice Game"
}
