{
  "project_info": {
    "project_number": "784936904830",
    "firebase_url": "https://solitairegoldusa.firebaseio.com",
    "project_id": "solitairegoldusa",
    "storage_bucket": "solitairegoldusa.appspot.com"
  },
  "client": [
    {
      "client_info": {
        "mobilesdk_app_id": "1:784936904830:android:adefa327525a10ea3d502f",
        "android_client_info": {
          "package_name": "com.winnerzinc.solitairegold"
        }
      },
      "oauth_client": [
        {
          "client_id": "784936904830-815a26al5r3r6utq0l8s62lte6qf7bc9.apps.googleusercontent.com",
          "client_type": 1,
          "android_info": {
            "package_name": "com.winnerzinc.solitairegold",
            "certificate_hash": "e2f2d50195dcf435f2518ddeb6168b641f80fc29"
          }
        },
        {
          "client_id": "784936904830-143rq8uljjcmpu1c4ir10tgfdgak7g6b.apps.googleusercontent.com",
          "client_type": 1,
          "android_info": {
            "package_name": "com.winnerzinc.solitairegold",
            "certificate_hash": "9d257e107c1600a3dfbdf03404f6e3a3b97f0170"
          }
        },
        {
          "client_id": "784936904830-5c8khr56ki8p59ohg6o90ub104khusup.apps.googleusercontent.com",
          "client_type": 3
        }
      ],
      "api_key": [
        {
          "current_key": "AIzaSyATfwqZUd07CaZ0oMppV8c12VXa5n4Lga8"
        }
      ],
      "services": {
        "appinvite_service": {
          "other_platform_oauth_client": [
            {
              "client_id": "784936904830-5c8khr56ki8p59ohg6o90ub104khusup.apps.googleusercontent.com",
              "client_type": 3
            },
            {
              "client_id": "784936904830-3ht747slsige7kkog2lue8uruovaqtrb.apps.googleusercontent.com",
              "client_type": 2,
              "ios_info": {
                "bundle_id": "com.winnerzinc.solitairegold"
              }
            }
          ]
        }
      }
    }
  ],
  "configuration_version": "1"
}