{
  "project_info": {
    "project_number": "727590262670",
    "firebase_url": "https://rummy-unity-client.firebaseio.com",
    "project_id": "rummy-unity-client",
    "storage_bucket": "rummy-unity-client.appspot.com"
  },
  "client": [
    {
      "client_info": {
        "mobilesdk_app_id": "1:727590262670:android:2057a666217933e0c836df",
        "android_client_info": {
          "package_name": "com.JungleeGames.rummyunityclient"
        }
      },
      "oauth_client": [
        {
          "client_id": "727590262670-b1cq2nsfokk93idoe2r93a3b0svt7t92.apps.googleusercontent.com",
          "client_type": 3
        }
      ],
      "api_key": [
        {
          "current_key": "AIzaSyACKCp0XJiKbYS-AK-BjZuLZfGid-E6fRE"
        }
      ],
      "services": {
        "appinvite_service": {
          "other_platform_oauth_client": [
            {
              "client_id": "727590262670-b1cq2nsfokk93idoe2r93a3b0svt7t92.apps.googleusercontent.com",
              "client_type": 3
            }
          ]
        }
      }
    }
  ],
  "configuration_version": "1"
}